[gd_scene load_steps=9 format=2]

[ext_resource path="res://Assets/kenney_platformerpack/PNG/Players/Variable sizes/Blue/alienBlue_walk1.png" type="Texture" id=1]
[ext_resource path="res://Assets/kenney_platformerpack/PNG/Players/Variable sizes/Blue/alienBlue_walk2.png" type="Texture" id=2]
[ext_resource path="res://Assets/kenney_platformerpack/PNG/Players/Variable sizes/Blue/alienBlue_jump.png" type="Texture" id=3]
[ext_resource path="res://Assets/kenney_platformerpack/PNG/Players/Variable sizes/Blue/alienBlue_stand.png" type="Texture" id=4]

[sub_resource type="GDScript" id=1]
script/source = "extends KinematicBody2D

export (int) var speed = 600
export (int) var GRAVITY = 1200
export (int) var jump_speed = -400

const UP = Vector2(0,-1)

var velocity = Vector2()

var animation = \"diri_kanan\"

onready var animasi = self.get_node(\"AnimatedSprite\")

func get_input():
	velocity.x = 0
	if is_on_floor() and Input.is_action_just_pressed('jump'):
		velocity.y = jump_speed
	if Input.is_action_pressed('right'):
		velocity.x += speed
	if Input.is_action_pressed('left'):
		velocity.x -= speed
	if $AnimatedSprite.animation != animation:
		$AnimatedSprite.play(animation)


func _physics_process(delta):
	velocity.y += delta * GRAVITY
	get_input()
	velocity = move_and_slide(velocity, UP)

func _process(delta):
	if velocity.y != 0:
		animation = \"jump\"
	elif velocity.x != 0:
		animation = \"walk\"
		if velocity.x > 0:
			animasi.flip_h = false
		else:
			animasi.flip_h = true
	else:
		animation = \"stand\"
	
"

[sub_resource type="RectangleShape2D" id=2]
extents = Vector2( 26.462, 38.442 )

[sub_resource type="SpriteFrames" id=3]
animations = [ {
"frames": [ ExtResource( 4 ) ],
"loop": true,
"name": "stand",
"speed": 5.0
}, {
"frames": [ ExtResource( 2 ), ExtResource( 1 ) ],
"loop": true,
"name": "walk",
"speed": 5.0
}, {
"frames": [ ExtResource( 3 ) ],
"loop": true,
"name": "jump",
"speed": 5.0
} ]

[sub_resource type="Animation" id=4]
resource_name = "Idle"
length = 0.2

[node name="Player2" type="KinematicBody2D"]
script = SubResource( 1 )

[node name="CollisionShape2D" type="CollisionShape2D" parent="."]
shape = SubResource( 2 )

[node name="AnimatedSprite" type="AnimatedSprite" parent="."]
scale = Vector2( 0.404784, 0.404784 )
frames = SubResource( 3 )
animation = "walk"

[node name="Animator" type="AnimationPlayer" parent="."]
anims/Idle = SubResource( 4 )

[node name="Camera2D" type="Camera2D" parent="."]
position = Vector2( 0, -135.417 )
current = true
zoom = Vector2( 1, 0.9 )
